%YAML 1.1
%TAG !u! tag:unity3d.com,2011:
--- !u!114 &11400000
MonoBehaviour:
  m_ObjectHideFlags: 0
  m_CorrespondingSourceObject: {fileID: 0}
  m_PrefabInstance: {fileID: 0}
  m_PrefabAsset: {fileID: 0}
  m_GameObject: {fileID: 0}
  m_Enabled: 1
  m_EditorHideFlags: 0
  m_Script: {fileID: 11500000, guid: 95e66c6366d904e98bc83428217d4fd7, type: 3}
  m_Name: CAPSULEROTATION
  m_EditorClassIdentifier: 
  _data:
    _json: '{"graph":{"variables":{"Kind":"Flow","collection":{"$content":[],"$version":"A"},"$version":"A"},"controlInputDefinitions":[],"controlOutputDefinitions":[],"valueInputDefinitions":[],"valueOutputDefinitions":[],"title":"CapsuleRotation","summary":null,"pan":{"x":0.0,"y":30.0},"zoom":1.0,"elements":[{"coroutine":false,"defaultValues":{},"position":{"x":-377.0,"y":-219.0},"guid":"2dac5953-8dc2-4345-a6cb-d67aa26f9834","$version":"A","$type":"Unity.VisualScripting.Update","$id":"9"},{"chainable":false,"parameterNames":["vector","maxLength"],"member":{"name":"ClampMagnitude","parameterTypes":["UnityEngine.Vector3","System.Single"],"targetType":"UnityEngine.Vector3","targetTypeName":"UnityEngine.Vector3","$version":"A"},"defaultValues":{"%vector":{"x":0.0,"y":0.0,"z":0.0,"$type":"UnityEngine.Vector3"},"%maxLength":{"$content":1.0,"$type":"System.Single"}},"position":{"x":-53.0,"y":-236.0},"guid":"1a22c9d1-de13-4587-97de-49c7d0bf80e7","$version":"A","$type":"Unity.VisualScripting.InvokeMember","$id":"11"},{"chainable":false,"parameterNames":["eulers"],"member":{"name":"Rotate","parameterTypes":["UnityEngine.Vector3"],"targetType":"UnityEngine.Transform","targetTypeName":"UnityEngine.Transform","$version":"A"},"defaultValues":{"target":null,"%eulers":{"x":0.0,"y":0.0,"z":0.0,"$type":"UnityEngine.Vector3"}},"position":{"x":260.0,"y":-225.0},"guid":"b0513fca-78e6-49dc-b351-55bf95115d07","$version":"A","$type":"Unity.VisualScripting.InvokeMember","$id":"15"},{"specifyFallback":false,"kind":"Object","defaultValues":{"name":{"$content":"RotationAxis","$type":"System.String"},"object":null},"position":{"x":-381.0,"y":-32.0},"guid":"4873ceae-dc6d-4a79-8a06-770457f16db6","$version":"A","$type":"Unity.VisualScripting.GetVariable","$id":"19"},{"specifyFallback":false,"kind":"Object","defaultValues":{"name":{"$content":"RotationSpeed","$type":"System.String"},"object":null},"position":{"x":-187.0,"y":15.0},"guid":"2e980f1a-2ce5-4ce4-8b7d-135afc4e11ff","$version":"A","$type":"Unity.VisualScripting.GetVariable","$id":"21"},{"member":{"name":"deltaTime","parameterTypes":null,"targetType":"UnityEngine.Time","targetTypeName":"UnityEngine.Time","$version":"A"},"defaultValues":{},"position":{"x":-335.0,"y":189.0},"guid":"e1ae0b21-19a1-4f81-bbee-072d1c3aa643","$version":"A","$type":"Unity.VisualScripting.GetMember","$id":"23"},{"defaultValues":{},"position":{"x":19.0,"y":74.0},"guid":"797d69f5-ba56-416d-83f4-b22f813a75e3","$version":"A","$type":"Unity.VisualScripting.GenericMultiply","$id":"26"},{"defaultValues":{},"position":{"x":160.0,"y":-40.0},"guid":"8097f65f-8448-4b35-a8e2-38457d1511b2","$version":"A","$type":"Unity.VisualScripting.GenericMultiply","$id":"28"},{"sourceUnit":{"$ref":"9"},"sourceKey":"trigger","destinationUnit":{"$ref":"11"},"destinationKey":"enter","guid":"9794509f-b44c-4c6e-80ce-e6260dda6913","$type":"Unity.VisualScripting.ControlConnection"},{"sourceUnit":{"$ref":"11"},"sourceKey":"exit","destinationUnit":{"$ref":"15"},"destinationKey":"enter","guid":"65848d92-4827-4f2c-8848-b5d8aaf7604c","$type":"Unity.VisualScripting.ControlConnection"},{"sourceUnit":{"$ref":"23"},"sourceKey":"value","destinationUnit":{"$ref":"26"},"destinationKey":"b","guid":"5ee5763b-7924-496f-b78c-b63562e6681f","$type":"Unity.VisualScripting.ValueConnection"},{"sourceUnit":{"$ref":"21"},"sourceKey":"value","destinationUnit":{"$ref":"26"},"destinationKey":"a","guid":"a19efbcd-4864-4b16-8a65-b7ad39d555a9","$type":"Unity.VisualScripting.ValueConnection"},{"sourceUnit":{"$ref":"19"},"sourceKey":"value","destinationUnit":{"$ref":"11"},"destinationKey":"%vector","guid":"fed992ea-5bbb-44b7-8bd7-fa1382d5bd12","$type":"Unity.VisualScripting.ValueConnection"},{"sourceUnit":{"$ref":"11"},"sourceKey":"result","destinationUnit":{"$ref":"28"},"destinationKey":"a","guid":"75796ae8-6368-4448-8194-1c83d2c82d29","$type":"Unity.VisualScripting.ValueConnection"},{"sourceUnit":{"$ref":"26"},"sourceKey":"product","destinationUnit":{"$ref":"28"},"destinationKey":"b","guid":"c19ac4a1-7262-477e-9084-b82048379524","$type":"Unity.VisualScripting.ValueConnection"},{"sourceUnit":{"$ref":"28"},"sourceKey":"product","destinationUnit":{"$ref":"15"},"destinationKey":"%eulers","guid":"59bb90c5-8e1a-4d5b-b9d5-3f1e8c32c0a3","$type":"Unity.VisualScripting.ValueConnection"}],"$version":"A"}}'
    _objectReferences: []
